{
  "name": "fabric-network",
  "description": "Generated network configuration file",
  "version": "0.1",
  "client": {
    "organization": "buyer.electrokart.com",
    "credentialStore": {
      "path": "/tmp/hfc-kvs",
      "cryptoStore": {
        "path": "/tmp/hfc-cvs"
      },
      "wallet": "wallet-name"
    }
  },
  "organizations": {
    "buyer.electrokart.com": {
      "mspid": "buyer-electrokart-com",
      "peers": [
        "peer1.buyer.electrokart.com"
      ],
      "users": {
        "Admin": {
          "cert": "/keyfiles/peerOrganizations/buyer.electrokart.com/users/Admin@buyer.electrokart.com/msp/signcerts/Admin@buyer.electrokart.com-cert.pem",
          "private_key": "/keyfiles/peerOrganizations/buyer.electrokart.com/users/Admin@buyer.electrokart.com/msp/keystore/priv_sk"
        }
      }
    },
    "dealer.electrokart.com": {
      "mspid": "dealer-electrokart-com",
      "peers": [
        "peer1.dealer.electrokart.com"
      ],
      "users": {
        "Admin": {
          "cert": "/keyfiles/peerOrganizations/dealer.electrokart.com/users/Admin@dealer.electrokart.com/msp/signcerts/Admin@dealer.electrokart.com-cert.pem",
          "private_key": "/keyfiles/peerOrganizations/dealer.electrokart.com/users/Admin@dealer.electrokart.com/msp/keystore/priv_sk"
        }
      }
    },
    "electrokart.com": {
      "mspid": "electrokart-com",
      "orderers": [
        "orderer1.electrokart.com",
        "orderer2.electrokart.com",
        "orderer3.electrokart.com"
      ],
      "users": {
        "Admin": {
          "cert": "/keyfiles/ordererOrganizations/electrokart.com/users/Admin@electrokart.com/msp/signcerts/Admin@electrokart.com-cert.pem",
          "private_key": "/keyfiles/ordererOrganizations/electrokart.com/users/Admin@electrokart.com/msp/keystore/priv_sk"
        }
      }
    },
    "manufacturer.electrokart.com": {
      "mspid": "manufacturer-electrokart-com",
      "peers": [
        "peer1.manufacturer.electrokart.com"
      ],
      "users": {
        "Admin": {
          "cert": "/keyfiles/peerOrganizations/manufacturer.electrokart.com/users/Admin@manufacturer.electrokart.com/msp/signcerts/Admin@manufacturer.electrokart.com-cert.pem",
          "private_key": "/keyfiles/peerOrganizations/manufacturer.electrokart.com/users/Admin@manufacturer.electrokart.com/msp/keystore/priv_sk"
        }
      }
    }
  },
  "orderers": {
    "orderer1.electrokart.com": {
      "url": "192.168.68.157:7009",
      "grpcOptions": {
        "grpc.ssl_target_name_override": "orderer1.electrokart.com",
        "grpc-max-send-message-length": 15
      },
      "tlsCACerts": {
        "path": "/keyfiles/ordererOrganizations/electrokart.com/orderers/orderer1.electrokart.com/tls/ca.crt"
      }
    },
    "orderer2.electrokart.com": {
      "url": "192.168.68.157:7010",
      "grpcOptions": {
        "grpc.ssl_target_name_override": "orderer2.electrokart.com",
        "grpc-max-send-message-length": 15
      },
      "tlsCACerts": {
        "path": "/keyfiles/ordererOrganizations/electrokart.com/orderers/orderer2.electrokart.com/tls/ca.crt"
      }
    },
    "orderer3.electrokart.com": {
      "url": "192.168.68.157:7011",
      "grpcOptions": {
        "grpc.ssl_target_name_override": "orderer3.electrokart.com",
        "grpc-max-send-message-length": 15
      },
      "tlsCACerts": {
        "path": "/keyfiles/ordererOrganizations/electrokart.com/orderers/orderer3.electrokart.com/tls/ca.crt"
      }
    }
  },
  "peers": {
    "peer1.manufacturer.electrokart.com": {
      "url": "192.168.68.157:7003",
      "grpcOptions": {
        "grpc.ssl_target_name_override": "peer1.manufacturer.electrokart.com",
        "grpc-max-send-message-length": 15
      },
      "tlsCACerts": {
        "path": "/keyfiles/peerOrganizations/manufacturer.electrokart.com/peers/peer1.manufacturer.electrokart.com/tls/ca.crt"
      }
    },
    "peer1.dealer.electrokart.com": {
      "url": "192.168.68.157:7004",
      "grpcOptions": {
        "grpc.ssl_target_name_override": "peer1.dealer.electrokart.com",
        "grpc-max-send-message-length": 15
      },
      "tlsCACerts": {
        "path": "/keyfiles/peerOrganizations/dealer.electrokart.com/peers/peer1.dealer.electrokart.com/tls/ca.crt"
      }
    },
    "peer1.buyer.electrokart.com": {
      "url": "192.168.68.157:7005",
      "grpcOptions": {
        "grpc.ssl_target_name_override": "peer1.buyer.electrokart.com",
        "grpc-max-send-message-length": 15
      },
      "tlsCACerts": {
        "path": "/keyfiles/peerOrganizations/buyer.electrokart.com/peers/peer1.buyer.electrokart.com/tls/ca.crt"
      }
    }
  },
  "certificateAuthorities": {
    "ca1.manufacturer.electrokart.com": {
      "url": "https://192.168.68.157:7000",
      "tlsCACerts": {
        "path": "/keyfiles/peerOrganizations/manufacturer.electrokart.com/ca/ca1.manufacturer.electrokart.com-cert.pem"
      },
      "httpOptions": { "verify": "false" },
      "caName": "ca1",
      "registrar": { "enrollId": "admin", "enrollSecret": "adminpw" }
    },
    "ca1.dealer.electrokart.com": {
      "url": "https://192.168.68.157:7001",
      "tlsCACerts": {
        "path": "/keyfiles/peerOrganizations/dealer.electrokart.com/ca/ca1.dealer.electrokart.com-cert.pem"
      },
      "httpOptions": { "verify": "false" },
      "caName": "ca1",
      "registrar": { "enrollId": "admin", "enrollSecret": "adminpw" }
    },
    "ca1.buyer.electrokart.com": {
      "url": "https://192.168.68.157:7002",
      "tlsCACerts": {
        "path": "/keyfiles/peerOrganizations/buyer.electrokart.com/ca/ca1.buyer.electrokart.com-cert.pem"
      },
      "httpOptions": { "verify": "false" },
      "caName": "ca1",
      "registrar": { "enrollId": "admin", "enrollSecret": "adminpw" }
    }
  }
}
